Methods in Biostatistics - ROC + Adding Variables
…
Modeling

For illustrative purposes, we go back to test/training model, although ROC can and should be used within a cross validation framework.

# A tibble: 59 × 5
   term               estimate std.error statistic   p.value
   <chr>                 <dbl>     <dbl>     <dbl>     <dbl>
 1 (Intercept)         -1.42      0.0505    -28.2  2.26e-174
 2 yard_type_pavement  -0.854     0.149      -5.74 9.23e-  9
 3 yard_type_garden    -0.175     0.0392     -4.47 7.89e-  6
 4 yard_type_landsca    0.168     0.0219      7.69 1.45e- 14
 5 yard_type_woods      0.309     0.0170     18.1  1.59e- 73
 6 yard_type_desert    -0.297     0.0789     -3.76 1.68e-  4
 7 hab_dcid_woods       0.336     0.0161     20.9  6.55e- 97
 8 hab_evgr_woods      -0.0797    0.0192     -4.15 3.36e-  5
 9 hab_mixed_woods      0.420     0.0158     26.5  3.17e-155
10 hab_orchard         -0.307     0.0252    -12.2  4.00e- 34
# … with 49 more rows
…
sensitivty = number of squirrels that are accurately predicted to be squirrels (true positive rate)

specificity = number of non-squirrels that are accurately predicted to be non-squirrels (true negative rate)

Make predictions for test data

feeder_test_pred <- predict(feeder_fit, feeder_test, type = "prob") %>%
  mutate(.pred_class = as.factor(ifelse(.pred_squirrels >=0.5,
                                        "squirrels", "no squirrels"))) %>%
  bind_cols(feeder_test %>% select(squirrels))

feeder_test_pred

# A tibble: 58,922 × 4
   `.pred_no squirrels` .pred_squirrels .pred_class squirrels   
                  <dbl>           <dbl> <fct>       <fct>       
 1               0.201            0.799 squirrels   no squirrels
 2               0.156            0.844 squirrels   no squirrels
 3               0.352            0.648 squirrels   no squirrels
 4               0.197            0.803 squirrels   squirrels   
 5               0.121            0.879 squirrels   squirrels   
 6               0.272            0.728 squirrels   squirrels   
 7               0.0459           0.954 squirrels   squirrels   
 8               0.0341           0.966 squirrels   squirrels   
 9               0.0631           0.937 squirrels   squirrels   
10               0.0312           0.969 squirrels   squirrels   
# … with 58,912 more rows
…
